%YAML 1.1
%TAG !u! tag:unity3d.com,2011:
--- !u!114 &11400000
MonoBehaviour:
  m_ObjectHideFlags: 0
  m_CorrespondingSourceObject: {fileID: 0}
  m_PrefabInstance: {fileID: 0}
  m_PrefabAsset: {fileID: 0}
  m_GameObject: {fileID: 0}
  m_Enabled: 1
  m_EditorHideFlags: 0
  m_Script: {fileID: 11500000, guid: 93dcfb5af2e1654449ecea1e2f5a675b, type: 3}
  m_Name: Weapon Database
  m_EditorClassIdentifier: 
  items:
  - {fileID: 11400000, guid: 93133fcb92ab43c4abaca9c6c4beb696, type: 2}
  - {fileID: 11400000, guid: c92c9066e07be3c43832b39d723c381c, type: 2}
  - {fileID: 11400000, guid: f80aafd5534f787439c9f64f001b4441, type: 2}
  - {fileID: 11400000, guid: b6249a07d1860a845a4469772109512a, type: 2}
  - {fileID: 11400000, guid: 1cbad94d5585e024eaa367ac1cd9653d, type: 2}
