%YAML 1.1
%TAG !u! tag:unity3d.com,2011:
--- !u!221 &22100000
AnimatorOverrideController:
  m_ObjectHideFlags: 0
  m_CorrespondingSourceObject: {fileID: 0}
  m_PrefabInstance: {fileID: 0}
  m_PrefabAsset: {fileID: 0}
  m_Name: Boy (Blue) Animator
  m_Controller: {fileID: 9100000, guid: cb0023502a43ac6488582019d6d1589c, type: 2}
  m_Clips:
  - m_OriginalClip: {fileID: 7400000, guid: 653aef33d7de4f04ca33b74c50813fd8, type: 2}
    m_OverrideClip: {fileID: 7400000, guid: ebc4afb93091bcf46a7b4d14a305e4c4, type: 2}
  - m_OriginalClip: {fileID: 7400000, guid: 45008110e1e5a7447b4a65b8fc38f4f2, type: 2}
    m_OverrideClip: {fileID: 7400000, guid: f81428b48a1522342b90c341d817dd15, type: 2}
  - m_OriginalClip: {fileID: 7400000, guid: 2cb66db70e66a064abc0174ee70f499f, type: 2}
    m_OverrideClip: {fileID: 7400000, guid: b374233ef48961641b5505413a85f862, type: 2}
  - m_OriginalClip: {fileID: 7400000, guid: 8f653b01b4a370945a4182e70667900c, type: 2}
    m_OverrideClip: {fileID: 7400000, guid: 3b9afac340e678144ada375edf971c82, type: 2}
  - m_OriginalClip: {fileID: 7400000, guid: 09bfc6764b9be2140be19f0a229d8e02, type: 2}
    m_OverrideClip: {fileID: 7400000, guid: aa36a94a54b969b4cabb04e14152c23f, type: 2}
  - m_OriginalClip: {fileID: 7400000, guid: f6d32e9cb15fdc8418722215dc14e574, type: 2}
    m_OverrideClip: {fileID: 7400000, guid: 53867e3fb5f9f4749aa0d2b04eef8a2b, type: 2}
  - m_OriginalClip: {fileID: 7400000, guid: 4065d30e67f279a48bc2af364342ae43, type: 2}
    m_OverrideClip: {fileID: 7400000, guid: 071c18fc4f6619643b36aacd1d38870c, type: 2}
  - m_OriginalClip: {fileID: 7400000, guid: 1eba69d4ce6b2334796b95e6bfa7ccc1, type: 2}
    m_OverrideClip: {fileID: 7400000, guid: cc82693b97f390b41baaea1ba4b23cea, type: 2}
