%YAML 1.1
%TAG !u! tag:unity3d.com,2011:
--- !u!221 &22100000
AnimatorOverrideController:
  m_ObjectHideFlags: 0
  m_CorrespondingSourceObject: {fileID: 0}
  m_PrefabInstance: {fileID: 0}
  m_PrefabAsset: {fileID: 0}
  m_Name: Kain Highwind Animator (Battle)
  m_Controller: {fileID: 9100000, guid: 38fd0792327bf5745b57fa05f5aad9b8, type: 2}
  m_Clips:
  - m_OriginalClip: {fileID: 7400000, guid: 68e17bec9245a6d42bde37caacf6641f, type: 2}
    m_OverrideClip: {fileID: 7400000, guid: ce443315a70771a43a14f8f874b3b4f3, type: 2}
  - m_OriginalClip: {fileID: 7400000, guid: f1d23e28441d1c440af79459ec682237, type: 2}
    m_OverrideClip: {fileID: 7400000, guid: 58409df5749496d49ad94a46e6eceaea, type: 2}
  - m_OriginalClip: {fileID: 7400000, guid: 3e60a1dde7ddbf54ca70f2c1cc61127d, type: 2}
    m_OverrideClip: {fileID: 7400000, guid: c700af626b995c442b3becb3ef1775ed, type: 2}
  - m_OriginalClip: {fileID: 7400000, guid: 8b75d0e4fb97a534f8c38ce7fe767c7f, type: 2}
    m_OverrideClip: {fileID: 7400000, guid: 91b852425e8ddfa408d7f488bcd6fdf7, type: 2}
  - m_OriginalClip: {fileID: 7400000, guid: 0f9003db5cffea94391244d6aa8a26b9, type: 2}
    m_OverrideClip: {fileID: 7400000, guid: 08e2775154f8ee842b16f0384570dcc7, type: 2}
  - m_OriginalClip: {fileID: 7400000, guid: b6149025d44f40640b4edfb4e5bdeb21, type: 2}
    m_OverrideClip: {fileID: 7400000, guid: 884ead0b96a12cc4c9305d66f7c3747e, type: 2}
