%YAML 1.1
%TAG !u! tag:unity3d.com,2011:
--- !u!1 &3482328765129052425
GameObject:
  m_ObjectHideFlags: 0
  m_CorrespondingSourceObject: {fileID: 0}
  m_PrefabInstance: {fileID: 0}
  m_PrefabAsset: {fileID: 0}
  serializedVersion: 6
  m_Component:
  - component: {fileID: 7162286343922461971}
  - component: {fileID: 5828505605817581051}
  - component: {fileID: 8205682838995829643}
  m_Layer: 31
  m_Name: Layer1
  m_TagString: Untagged
  m_Icon: {fileID: 0}
  m_NavMeshLayer: 0
  m_StaticEditorFlags: 0
  m_IsActive: 1
--- !u!4 &7162286343922461971
Transform:
  m_ObjectHideFlags: 0
  m_CorrespondingSourceObject: {fileID: 0}
  m_PrefabInstance: {fileID: 0}
  m_PrefabAsset: {fileID: 0}
  m_GameObject: {fileID: 3482328765129052425}
  m_LocalRotation: {x: -0, y: -0, z: -0, w: 1}
  m_LocalPosition: {x: 0, y: 0, z: 0}
  m_LocalScale: {x: 1, y: 1, z: 1}
  m_Children: []
  m_Father: {fileID: 2916543399086834679}
  m_RootOrder: 0
  m_LocalEulerAnglesHint: {x: 0, y: 0, z: 0}
--- !u!1839735485 &5828505605817581051
Tilemap:
  m_ObjectHideFlags: 0
  m_CorrespondingSourceObject: {fileID: 0}
  m_PrefabInstance: {fileID: 0}
  m_PrefabAsset: {fileID: 0}
  m_GameObject: {fileID: 3482328765129052425}
  m_Enabled: 1
  m_Tiles:
  - first: {x: -2, y: -3, z: 0}
    second:
      serializedVersion: 2
      m_TileIndex: 26
      m_TileSpriteIndex: 26
      m_TileMatrixIndex: 0
      m_TileColorIndex: 0
      m_TileObjectToInstantiateIndex: 65535
      m_AllTileFlags: 1073741825
  - first: {x: -2, y: -2, z: 0}
    second:
      serializedVersion: 2
      m_TileIndex: 7
      m_TileSpriteIndex: 7
      m_TileMatrixIndex: 0
      m_TileColorIndex: 0
      m_TileObjectToInstantiateIndex: 65535
      m_AllTileFlags: 1073741825
  - first: {x: -1, y: -2, z: 0}
    second:
      serializedVersion: 2
      m_TileIndex: 8
      m_TileSpriteIndex: 8
      m_TileMatrixIndex: 0
      m_TileColorIndex: 0
      m_TileObjectToInstantiateIndex: 65535
      m_AllTileFlags: 1073741825
  - first: {x: 0, y: -2, z: 0}
    second:
      serializedVersion: 2
      m_TileIndex: 9
      m_TileSpriteIndex: 9
      m_TileMatrixIndex: 0
      m_TileColorIndex: 0
      m_TileObjectToInstantiateIndex: 65535
      m_AllTileFlags: 1073741825
  - first: {x: 1, y: -2, z: 0}
    second:
      serializedVersion: 2
      m_TileIndex: 22
      m_TileSpriteIndex: 22
      m_TileMatrixIndex: 0
      m_TileColorIndex: 0
      m_TileObjectToInstantiateIndex: 65535
      m_AllTileFlags: 1073741825
  - first: {x: 2, y: -2, z: 0}
    second:
      serializedVersion: 2
      m_TileIndex: 23
      m_TileSpriteIndex: 23
      m_TileMatrixIndex: 0
      m_TileColorIndex: 0
      m_TileObjectToInstantiateIndex: 65535
      m_AllTileFlags: 1073741825
  - first: {x: 3, y: -2, z: 0}
    second:
      serializedVersion: 2
      m_TileIndex: 24
      m_TileSpriteIndex: 24
      m_TileMatrixIndex: 0
      m_TileColorIndex: 0
      m_TileObjectToInstantiateIndex: 65535
      m_AllTileFlags: 1073741825
  - first: {x: 4, y: -2, z: 0}
    second:
      serializedVersion: 2
      m_TileIndex: 25
      m_TileSpriteIndex: 25
      m_TileMatrixIndex: 0
      m_TileColorIndex: 0
      m_TileObjectToInstantiateIndex: 65535
      m_AllTileFlags: 1073741825
  - first: {x: -2, y: -1, z: 0}
    second:
      serializedVersion: 2
      m_TileIndex: 2
      m_TileSpriteIndex: 2
      m_TileMatrixIndex: 0
      m_TileColorIndex: 0
      m_TileObjectToInstantiateIndex: 65535
      m_AllTileFlags: 1073741825
  - first: {x: -1, y: -1, z: 0}
    second:
      serializedVersion: 2
      m_TileIndex: 3
      m_TileSpriteIndex: 3
      m_TileMatrixIndex: 0
      m_TileColorIndex: 0
      m_TileObjectToInstantiateIndex: 65535
      m_AllTileFlags: 1073741825
  - first: {x: 0, y: -1, z: 0}
    second:
      serializedVersion: 2
      m_TileIndex: 4
      m_TileSpriteIndex: 4
      m_TileMatrixIndex: 0
      m_TileColorIndex: 0
      m_TileObjectToInstantiateIndex: 65535
      m_AllTileFlags: 1073741825
  - first: {x: 1, y: -1, z: 0}
    second:
      serializedVersion: 2
      m_TileIndex: 18
      m_TileSpriteIndex: 18
      m_TileMatrixIndex: 0
      m_TileColorIndex: 0
      m_TileObjectToInstantiateIndex: 65535
      m_AllTileFlags: 1073741825
  - first: {x: 2, y: -1, z: 0}
    second:
      serializedVersion: 2
      m_TileIndex: 19
      m_TileSpriteIndex: 19
      m_TileMatrixIndex: 0
      m_TileColorIndex: 0
      m_TileObjectToInstantiateIndex: 65535
      m_AllTileFlags: 1073741825
  - first: {x: 3, y: -1, z: 0}
    second:
      serializedVersion: 2
      m_TileIndex: 20
      m_TileSpriteIndex: 20
      m_TileMatrixIndex: 0
      m_TileColorIndex: 0
      m_TileObjectToInstantiateIndex: 65535
      m_AllTileFlags: 1073741825
  - first: {x: 4, y: -1, z: 0}
    second:
      serializedVersion: 2
      m_TileIndex: 21
      m_TileSpriteIndex: 21
      m_TileMatrixIndex: 0
      m_TileColorIndex: 0
      m_TileObjectToInstantiateIndex: 65535
      m_AllTileFlags: 1073741825
  - first: {x: -2, y: 0, z: 0}
    second:
      serializedVersion: 2
      m_TileIndex: 0
      m_TileSpriteIndex: 0
      m_TileMatrixIndex: 0
      m_TileColorIndex: 0
      m_TileObjectToInstantiateIndex: 65535
      m_AllTileFlags: 1073741825
  - first: {x: -1, y: 0, z: 0}
    second:
      serializedVersion: 2
      m_TileIndex: 1
      m_TileSpriteIndex: 1
      m_TileMatrixIndex: 0
      m_TileColorIndex: 0
      m_TileObjectToInstantiateIndex: 65535
      m_AllTileFlags: 1073741825
  - first: {x: 1, y: 0, z: 0}
    second:
      serializedVersion: 2
      m_TileIndex: 15
      m_TileSpriteIndex: 15
      m_TileMatrixIndex: 0
      m_TileColorIndex: 0
      m_TileObjectToInstantiateIndex: 65535
      m_AllTileFlags: 1073741825
  - first: {x: 2, y: 0, z: 0}
    second:
      serializedVersion: 2
      m_TileIndex: 10
      m_TileSpriteIndex: 10
      m_TileMatrixIndex: 0
      m_TileColorIndex: 0
      m_TileObjectToInstantiateIndex: 65535
      m_AllTileFlags: 1073741825
  - first: {x: 3, y: 0, z: 0}
    second:
      serializedVersion: 2
      m_TileIndex: 16
      m_TileSpriteIndex: 16
      m_TileMatrixIndex: 0
      m_TileColorIndex: 0
      m_TileObjectToInstantiateIndex: 65535
      m_AllTileFlags: 1073741825
  - first: {x: 4, y: 0, z: 0}
    second:
      serializedVersion: 2
      m_TileIndex: 17
      m_TileSpriteIndex: 17
      m_TileMatrixIndex: 0
      m_TileColorIndex: 0
      m_TileObjectToInstantiateIndex: 65535
      m_AllTileFlags: 1073741825
  - first: {x: -2, y: 1, z: 0}
    second:
      serializedVersion: 2
      m_TileIndex: 5
      m_TileSpriteIndex: 5
      m_TileMatrixIndex: 0
      m_TileColorIndex: 0
      m_TileObjectToInstantiateIndex: 65535
      m_AllTileFlags: 1073741825
  - first: {x: -1, y: 1, z: 0}
    second:
      serializedVersion: 2
      m_TileIndex: 6
      m_TileSpriteIndex: 6
      m_TileMatrixIndex: 0
      m_TileColorIndex: 0
      m_TileObjectToInstantiateIndex: 65535
      m_AllTileFlags: 1073741825
  - first: {x: 1, y: 1, z: 0}
    second:
      serializedVersion: 2
      m_TileIndex: 11
      m_TileSpriteIndex: 11
      m_TileMatrixIndex: 0
      m_TileColorIndex: 0
      m_TileObjectToInstantiateIndex: 65535
      m_AllTileFlags: 1073741825
  - first: {x: 2, y: 1, z: 0}
    second:
      serializedVersion: 2
      m_TileIndex: 12
      m_TileSpriteIndex: 12
      m_TileMatrixIndex: 0
      m_TileColorIndex: 0
      m_TileObjectToInstantiateIndex: 65535
      m_AllTileFlags: 1073741825
  - first: {x: 3, y: 1, z: 0}
    second:
      serializedVersion: 2
      m_TileIndex: 13
      m_TileSpriteIndex: 13
      m_TileMatrixIndex: 0
      m_TileColorIndex: 0
      m_TileObjectToInstantiateIndex: 65535
      m_AllTileFlags: 1073741825
  - first: {x: 4, y: 1, z: 0}
    second:
      serializedVersion: 2
      m_TileIndex: 14
      m_TileSpriteIndex: 14
      m_TileMatrixIndex: 0
      m_TileColorIndex: 0
      m_TileObjectToInstantiateIndex: 65535
      m_AllTileFlags: 1073741825
  m_AnimatedTiles: {}
  m_TileAssetArray:
  - m_RefCount: 1
    m_Data: {fileID: 11400000, guid: 02ac8410b1271c1439ef4f56971d6ba1, type: 2}
  - m_RefCount: 1
    m_Data: {fileID: 11400000, guid: b0d1b3bcd52e0d140a2a806aa2d6955f, type: 2}
  - m_RefCount: 1
    m_Data: {fileID: 11400000, guid: e84ac337f2bb8c544b073bde17b9e0d4, type: 2}
  - m_RefCount: 1
    m_Data: {fileID: 11400000, guid: cd331b3aa464d2e4eb94646cff1c1b87, type: 2}
  - m_RefCount: 1
    m_Data: {fileID: 11400000, guid: 0c6e83ba30dfbf447b109d1c38045956, type: 2}
  - m_RefCount: 1
    m_Data: {fileID: 11400000, guid: 8802b4b173a05474ea53bce6962ad187, type: 2}
  - m_RefCount: 1
    m_Data: {fileID: 11400000, guid: ee8574da74bb8614bbccfd4bd1a05b4e, type: 2}
  - m_RefCount: 1
    m_Data: {fileID: 11400000, guid: 72da532e7a63b374c98a81548f5d5504, type: 2}
  - m_RefCount: 1
    m_Data: {fileID: 11400000, guid: 5697fec63a387d54dbe7da0fbb78d1cd, type: 2}
  - m_RefCount: 1
    m_Data: {fileID: 11400000, guid: f618982ff6a09cf4ab124e3cbed85586, type: 2}
  - m_RefCount: 1
    m_Data: {fileID: 11400000, guid: bd18a46a945a854459b68d64f7cf6cd2, type: 2}
  - m_RefCount: 1
    m_Data: {fileID: 11400000, guid: a075c8091dbbed7479828d8cee89086b, type: 2}
  - m_RefCount: 1
    m_Data: {fileID: 11400000, guid: 140c7087e481c6741b7be5c88d5de199, type: 2}
  - m_RefCount: 1
    m_Data: {fileID: 11400000, guid: ead78405d4e158e47b602ccfb535ccb7, type: 2}
  - m_RefCount: 1
    m_Data: {fileID: 11400000, guid: 08bfb3c9401e0334d961954717657793, type: 2}
  - m_RefCount: 1
    m_Data: {fileID: 11400000, guid: 3b2fb255da3ae4541ab45659322b9906, type: 2}
  - m_RefCount: 1
    m_Data: {fileID: 11400000, guid: e8f30f06ac740e4428597ac6a820b09f, type: 2}
  - m_RefCount: 1
    m_Data: {fileID: 11400000, guid: 2e0c75d2faff30c4cab769a48152d2d7, type: 2}
  - m_RefCount: 1
    m_Data: {fileID: 11400000, guid: a9fcbc80f6e3249438a18f2bae5b0a65, type: 2}
  - m_RefCount: 1
    m_Data: {fileID: 11400000, guid: 60759b9a56b873b4d9c20b6ffedbda12, type: 2}
  - m_RefCount: 1
    m_Data: {fileID: 11400000, guid: ccf6a5659797b5a4787f96d853950862, type: 2}
  - m_RefCount: 1
    m_Data: {fileID: 11400000, guid: f6fb61ec5236b4643abdf175f88fe4be, type: 2}
  - m_RefCount: 1
    m_Data: {fileID: 11400000, guid: 99aeb95098b91ee45857df0a47d974c1, type: 2}
  - m_RefCount: 1
    m_Data: {fileID: 11400000, guid: efd8d1df90bb69241b5d71f528226cbb, type: 2}
  - m_RefCount: 1
    m_Data: {fileID: 11400000, guid: 735f6333fd8d60c4cb41e584d42bc456, type: 2}
  - m_RefCount: 1
    m_Data: {fileID: 11400000, guid: e528bca5233257e4587d7b8c906d8562, type: 2}
  - m_RefCount: 1
    m_Data: {fileID: 11400000, guid: d7a16dbddcd0ce34cb3a5c2a6d705bfb, type: 2}
  m_TileSpriteArray:
  - m_RefCount: 1
    m_Data: {fileID: -5281422124547630143, guid: 36a5ddceb38e1394ab721edbc9ec33dc,
      type: 3}
  - m_RefCount: 1
    m_Data: {fileID: 4714410783012859700, guid: 36a5ddceb38e1394ab721edbc9ec33dc,
      type: 3}
  - m_RefCount: 1
    m_Data: {fileID: 4214149858688995037, guid: 726629896be2fbb4d8e6800bffe84738,
      type: 3}
  - m_RefCount: 1
    m_Data: {fileID: 7792039334551005206, guid: 726629896be2fbb4d8e6800bffe84738,
      type: 3}
  - m_RefCount: 1
    m_Data: {fileID: 8606200704858056018, guid: 726629896be2fbb4d8e6800bffe84738,
      type: 3}
  - m_RefCount: 1
    m_Data: {fileID: -2869115396899081085, guid: d6c40b22e3dcd394996e72d428bcbc55,
      type: 3}
  - m_RefCount: 1
    m_Data: {fileID: -4950680412457382125, guid: d6c40b22e3dcd394996e72d428bcbc55,
      type: 3}
  - m_RefCount: 1
    m_Data: {fileID: -5385799814612375319, guid: 5f15c2ac1babd1948afe887823d3ec2a,
      type: 3}
  - m_RefCount: 1
    m_Data: {fileID: 4093035410258928880, guid: 5f15c2ac1babd1948afe887823d3ec2a,
      type: 3}
  - m_RefCount: 1
    m_Data: {fileID: -7906250443384621069, guid: 5f15c2ac1babd1948afe887823d3ec2a,
      type: 3}
  - m_RefCount: 1
    m_Data: {fileID: 8954592487278907307, guid: 5225678084f886547ad34376694d8b43,
      type: 3}
  - m_RefCount: 1
    m_Data: {fileID: 6049605792901559095, guid: 5225678084f886547ad34376694d8b43,
      type: 3}
  - m_RefCount: 1
    m_Data: {fileID: -5882170695943828418, guid: 5225678084f886547ad34376694d8b43,
      type: 3}
  - m_RefCount: 1
    m_Data: {fileID: 7591774343886807129, guid: 5225678084f886547ad34376694d8b43,
      type: 3}
  - m_RefCount: 1
    m_Data: {fileID: 8088830456793213489, guid: 5225678084f886547ad34376694d8b43,
      type: 3}
  - m_RefCount: 1
    m_Data: {fileID: 4177692092066526168, guid: 5225678084f886547ad34376694d8b43,
      type: 3}
  - m_RefCount: 1
    m_Data: {fileID: -4906324669642958461, guid: 5225678084f886547ad34376694d8b43,
      type: 3}
  - m_RefCount: 1
    m_Data: {fileID: -4272997025716492783, guid: 5225678084f886547ad34376694d8b43,
      type: 3}
  - m_RefCount: 1
    m_Data: {fileID: -7504709878752999052, guid: 5225678084f886547ad34376694d8b43,
      type: 3}
  - m_RefCount: 1
    m_Data: {fileID: -770516762760482041, guid: 5225678084f886547ad34376694d8b43,
      type: 3}
  - m_RefCount: 1
    m_Data: {fileID: -3028715903928053223, guid: 5225678084f886547ad34376694d8b43,
      type: 3}
  - m_RefCount: 1
    m_Data: {fileID: 2664101274904992878, guid: 5225678084f886547ad34376694d8b43,
      type: 3}
  - m_RefCount: 1
    m_Data: {fileID: 2845312742926433610, guid: 5225678084f886547ad34376694d8b43,
      type: 3}
  - m_RefCount: 1
    m_Data: {fileID: -8438048412923043348, guid: 5225678084f886547ad34376694d8b43,
      type: 3}
  - m_RefCount: 1
    m_Data: {fileID: 3162826104367349501, guid: 5225678084f886547ad34376694d8b43,
      type: 3}
  - m_RefCount: 1
    m_Data: {fileID: -6761020084298933573, guid: 5225678084f886547ad34376694d8b43,
      type: 3}
  - m_RefCount: 1
    m_Data: {fileID: 21300000, guid: da7d160299b29954a94ad5f60ed768bf, type: 3}
  m_TileMatrixArray:
  - m_RefCount: 27
    m_Data:
      e00: 1
      e01: 0
      e02: 0
      e03: 0
      e10: 0
      e11: 1
      e12: 0
      e13: 0
      e20: 0
      e21: 0
      e22: 1
      e23: 0
      e30: 0
      e31: 0
      e32: 0
      e33: 1
  m_TileColorArray:
  - m_RefCount: 27
    m_Data: {r: 1, g: 1, b: 1, a: 1}
  - m_RefCount: 0
    m_Data: {r: 0, g: 0, b: 0, a: 0}
  m_TileObjectToInstantiateArray: []
  m_AnimationFrameRate: 1
  m_Color: {r: 1, g: 1, b: 1, a: 1}
  m_Origin: {x: -2, y: -3, z: 0}
  m_Size: {x: 7, y: 5, z: 1}
  m_TileAnchor: {x: 0.5, y: 0.5, z: 0}
  m_TileOrientation: 0
  m_TileOrientationMatrix:
    e00: 1
    e01: 0
    e02: 0
    e03: 0
    e10: 0
    e11: 1
    e12: 0
    e13: 0
    e20: 0
    e21: 0
    e22: 1
    e23: 0
    e30: 0
    e31: 0
    e32: 0
    e33: 1
--- !u!483693784 &8205682838995829643
TilemapRenderer:
  m_ObjectHideFlags: 0
  m_CorrespondingSourceObject: {fileID: 0}
  m_PrefabInstance: {fileID: 0}
  m_PrefabAsset: {fileID: 0}
  m_GameObject: {fileID: 3482328765129052425}
  m_Enabled: 0
  m_CastShadows: 0
  m_ReceiveShadows: 0
  m_DynamicOccludee: 0
  m_MotionVectors: 1
  m_LightProbeUsage: 0
  m_ReflectionProbeUsage: 0
  m_RayTracingMode: 0
  m_RenderingLayerMask: 1
  m_RendererPriority: 0
  m_Materials:
  - {fileID: 10754, guid: 0000000000000000f000000000000000, type: 0}
  m_StaticBatchInfo:
    firstSubMesh: 0
    subMeshCount: 0
  m_StaticBatchRoot: {fileID: 0}
  m_ProbeAnchor: {fileID: 0}
  m_LightProbeVolumeOverride: {fileID: 0}
  m_ScaleInLightmap: 1
  m_ReceiveGI: 1
  m_PreserveUVs: 0
  m_IgnoreNormalsForChartDetection: 0
  m_ImportantGI: 0
  m_StitchLightmapSeams: 1
  m_SelectedEditorRenderState: 0
  m_MinimumChartSize: 4
  m_AutoUVMaxDistance: 0.5
  m_AutoUVMaxAngle: 89
  m_LightmapParameters: {fileID: 0}
  m_SortingLayerID: 0
  m_SortingLayer: 0
  m_SortingOrder: 0
  m_ChunkSize: {x: 32, y: 32, z: 32}
  m_ChunkCullingBounds: {x: 0, y: 0, z: 0}
  m_MaxChunkCount: 16
  m_MaxFrameAge: 16
  m_SortOrder: 0
  m_Mode: 0
  m_DetectChunkCullingBounds: 0
  m_MaskInteraction: 0
--- !u!1 &6004574698895000016
GameObject:
  m_ObjectHideFlags: 0
  m_CorrespondingSourceObject: {fileID: 0}
  m_PrefabInstance: {fileID: 0}
  m_PrefabAsset: {fileID: 0}
  serializedVersion: 6
  m_Component:
  - component: {fileID: 2916543399086834679}
  - component: {fileID: 3310220277445129826}
  m_Layer: 31
  m_Name: Misc.
  m_TagString: Untagged
  m_Icon: {fileID: 0}
  m_NavMeshLayer: 0
  m_StaticEditorFlags: 0
  m_IsActive: 1
--- !u!4 &2916543399086834679
Transform:
  m_ObjectHideFlags: 0
  m_CorrespondingSourceObject: {fileID: 0}
  m_PrefabInstance: {fileID: 0}
  m_PrefabAsset: {fileID: 0}
  m_GameObject: {fileID: 6004574698895000016}
  m_LocalRotation: {x: 0, y: 0, z: 0, w: 1}
  m_LocalPosition: {x: 0, y: 0, z: 0}
  m_LocalScale: {x: 1, y: 1, z: 1}
  m_Children:
  - {fileID: 7162286343922461971}
  m_Father: {fileID: 0}
  m_RootOrder: 0
  m_LocalEulerAnglesHint: {x: 0, y: 0, z: 0}
--- !u!156049354 &3310220277445129826
Grid:
  m_ObjectHideFlags: 0
  m_CorrespondingSourceObject: {fileID: 0}
  m_PrefabInstance: {fileID: 0}
  m_PrefabAsset: {fileID: 0}
  m_GameObject: {fileID: 6004574698895000016}
  m_Enabled: 1
  m_CellSize: {x: 1, y: 1, z: 0}
  m_CellGap: {x: 0, y: 0, z: 0}
  m_CellLayout: 0
  m_CellSwizzle: 0
--- !u!114 &1315252428165247227
MonoBehaviour:
  m_ObjectHideFlags: 0
  m_CorrespondingSourceObject: {fileID: 0}
  m_PrefabInstance: {fileID: 0}
  m_PrefabAsset: {fileID: 0}
  m_GameObject: {fileID: 0}
  m_Enabled: 1
  m_EditorHideFlags: 0
  m_Script: {fileID: 12395, guid: 0000000000000000e000000000000000, type: 0}
  m_Name: Palette Settings
  m_EditorClassIdentifier: 
  cellSizing: 0
