%YAML 1.1
%TAG !u! tag:unity3d.com,2011:
--- !u!114 &11400000
MonoBehaviour:
  m_ObjectHideFlags: 0
  m_CorrespondingSourceObject: {fileID: 0}
  m_PrefabInstance: {fileID: 0}
  m_PrefabAsset: {fileID: 0}
  m_GameObject: {fileID: 0}
  m_Enabled: 1
  m_EditorHideFlags: 0
  m_Script: {fileID: 11500000, guid: ffe6c16d43db0b84c8f216b73a7ede12, type: 3}
  m_Name: Silver Sword
  m_EditorClassIdentifier: 
  itemName: Silver Sword
  buyingPrice: 1500
  description: A reflective silver sword.
  equipmentStats:
    hp: 0
    mp: 0
    attack: 25
    defense: 0
    magic: 0
    speed: 0
    luck: 0
